Mini nano curso de ggplot2
…
O prximo passo  deixar os dados ajeitados" (tidy). Vou aproveitar e excluir os dados da dvida

dados <- 
  dados_brutos %>%
  gather(key = "Ano", value = "Valor", `2008`:`2017`) %>%
  filter(!(Categoria %in% c("Amortizao da Dvida", "Juros"))) %>%
  mutate(Categoria = factor(Categoria),
         Categoria = fct_reorder(Categoria, Valor),
         Ano = as.integer(Ano))

dados

## # A tibble: 80 x 3
##    Categoria                               Ano   Valor
##    <fct>                                 <int>   <dbl>
##  1 Pessoal                                2008 0.0456 
##  2 Custeio de Sade                       2008 0.00253
##  3 Custeio de Educao                    2008 0.00201
##  4 Custeio Social                         2008 0.0154 
##  5 Custeio Administrativo                 2008 0.0107 
##  6 Benefcios Previdencirios RGPS        2008 0.0594 
##  7 Investimentos                          2008 0.0213 
##  8 Transferncias a Estados e Municpios  2008 0.0554 
##  9 Pessoal                                2009 0.0499 
## 10 Custeio de Sade                       2009 0.00250
## # ... with 70 more rows
…
